50.0
50.5
51.0
51.5
52.0
52.5
53.0
53.5
54.0
54.5
55.0
55.5
56.0
56.5
57.0
57.5
58.0
58.5
59.0
59.5
60.0
60.5
61.0
61.5
62.0
62.5
63.0
63.5
64.0
64.5
65.0
65.5
66.0
66.5
67.0
67.5
68.0
68.5
69.0
69.5
70.0
70.5
71.0
71.5
72.0
72.5
73.0
73.5
74.0
74.5
75.0
75.5
76.0
76.5
77.0
77.5
78.0
78.5
79.0
79.5
80.0
81.5
83.0
84.5
86.0
87.5
89.0
90.5
92.0
93.5
95.0
96.5
98.0
99.5
101.0
102.5
104.0
105.5
107.0
108.5
110.0
111.5
113.0
114.5
116.0
117.5
119.0
120.5
122.0
123.5
125.0
126.5
128.0
129.5
131.0
132.5
134.0
135.5
137.0
138.5
140.0
141.5
143.0
144.5
146.0
147.5
149.0
150.5
152.0
153.5
155.0
156.5
158.0
159.5
161.0
162.5
164.0
165.5
167.0
168.5
170.0
170.0
168.5
167.0
165.5
164.0
162.5
161.0
159.5
158.0
156.5
155.0
153.5
152.0
150.5
149.0
147.5
146.0
144.5
143.0
141.5
140.0
138.5
137.0
135.5
134.0
132.5
131.0
129.5
128.0
126.5
125.0
123.5
122.0
120.5
119.0
117.5
116.0
114.5
113.0
111.5
110.0
108.5
107.0
105.5
104.0
102.5
101.0
99.5
98.0
96.5
95.0
93.5
92.0
90.5
89.0
87.5
86.0
84.5
83.0
81.5
80.0
78.5
77.0
75.5
74.0
72.5
71.0
69.5
68.0
66.5
65.0
63.5
62.0
60.5
59.0
57.5
56.0
54.5
53.0
51.5
50.0
