0.0
1.2
2.4
3.6
4.8
6.0
7.2
8.4
9.6
10.8
12.0
13.2
14.4
15.6
16.8
18.0
19.2
20.4
21.6
22.8
24.0
25.2
26.4
27.6
28.8
30.0
31.2
32.4
33.6
34.8
36.0
37.2
38.4
39.6
40.8
42.0
43.2
44.4
45.6
46.8
48.0
49.2
50.4
51.6
52.8
54.0
55.2
56.4
57.6
58.8
60.0
61.2
62.4
63.6
64.8
66.0
67.2
68.4
69.6
70.8
72.0
73.2
74.4
75.6
76.8
78.0
79.2
80.4
81.6
82.8
84.0
85.2
86.4
87.6
88.8
90.0
91.2
92.4
93.6
94.8
96.0
97.2
98.4
99.6
100.8
102.0
103.2
104.4
105.6
106.8
108.0
109.2
110.4
111.6
112.8
114.0
115.2
116.4
117.6
118.8
120.0
120.0
118.8
117.6
116.4
115.2
114.0
112.8
111.6
110.4
109.2
108.0
106.8
105.6
104.4
103.2
102.0
100.8
99.6
98.4
97.2
96.0
94.8
93.6
92.4
91.2
90.0
88.8
87.6
86.4
85.2
84.0
82.8
81.6
80.4
79.2
78.0
76.8
75.6
74.4
73.2
72.0
70.8
69.6
68.4
67.2
66.0
64.8
63.6
62.4
61.2
60.0
58.8
57.6
56.4
55.2
54.0
52.8
51.6
50.4
49.2
48.0
46.8
45.6
44.4
43.2
42.0
40.8
39.6
38.4
37.2
36.0
34.8
33.6
32.4
31.2
30.0
28.8
27.6
26.4
25.2
24.0
22.8
21.6
20.4
19.2
18.0
16.8
15.6
14.4
13.2
12.0
10.8
9.6
8.4
7.2
6.0
4.8
3.6
2.4
1.2
0.0
